# Blender v2.82 (sub 7) OBJ File: 'lineyka.blend'
# www.blender.org
mtllib lineyka.mtl
o Плоскость.002_Плоскость.003
v 4.080484 -1.201008 0.546791
v 8.080484 -1.201008 0.546791
v 4.080484 -1.201008 -0.763539
v 8.080484 -1.201008 -0.763539
v 4.080484 -1.205123 -0.763539
v 4.080484 -1.205123 0.546791
v 8.080484 -1.205123 0.546791
v 8.080484 -1.205123 -0.763539
v 7.370373 -1.201008 -0.763539
v 4.080484 -1.201008 0.219209
v 4.080484 -1.205123 0.219209
v 8.080484 -1.201008 0.219209
v 8.080484 -1.205123 0.219209
v 8.080484 -1.201008 -0.435956
v 8.080484 -1.205123 -0.435956
v 4.080484 -1.201008 -0.435956
v 4.080484 -1.205123 -0.435956
v 7.370373 -1.205123 0.546791
v 7.370373 -1.205123 -0.763539
v 8.080483 -1.201008 0.219209
v 8.080483 -1.201008 -0.435956
v 4.080484 -1.201008 0.005328
v 4.080484 -1.205123 0.005328
v 8.080484 -1.205123 0.005328
v 8.080484 -1.205123 -0.186617
v 4.080484 -1.201008 -0.186617
v 4.080484 -1.205123 -0.186617
vt 1.000000 0.000000
vt 1.000000 0.000000
vt 0.818281 0.000000
vt 0.000000 0.000000
vt 0.000000 0.250000
vt 0.000000 0.250000
vt 0.000000 1.000000
vt 0.818281 1.000000
vt 0.818281 1.000000
vt 0.000000 0.750000
vt 0.000000 1.000000
vt 1.000000 0.559713
vt 1.000000 0.750000
vt 0.000000 0.413226
vt 0.000000 0.413226
vt 0.000000 0.559713
vt 0.000000 0.559713
vt 0.000000 0.750000
vt 1.000000 0.250000
vt 0.818281 0.250000
vt 0.818281 0.750000
vt 1.000000 1.000000
vt 1.000000 0.750000
vt 1.000000 1.000000
vt 0.000000 0.000000
vt 1.000000 0.250000
vt 1.000000 0.413226
vn 0.0000 0.0000 -1.0000
vn 1.0000 0.0000 0.0000
vn 0.0000 0.0000 1.0000
vn 0.0000 -1.0000 0.0000
vn 0.0000 1.0000 -0.0000
vn -1.0000 0.0000 0.0000
vn -1.0000 -0.0004 0.0000
usemtl None
s 1
f 2/1/1 7/2/1 18/3/1
f 1/4/2 11/5/2 10/6/2
f 3/7/3 19/8/3 9/9/3
f 2/1/4 1/4/4 9/9/4
f 16/10/2 5/11/2 3/7/2
f 25/12/5 15/13/5 19/8/5
f 10/6/2 23/14/2 22/15/2
f 22/15/2 27/16/2 26/17/2
f 26/17/2 17/18/2 16/10/2
f 23/14/5 11/5/5 18/3/5
f 2/1/6 13/19/6 7/2/6
f 20/20/6 21/21/6 25/12/7
f 8/22/6 14/23/6 4/24/6
f 19/8/3 4/24/3 9/9/3
f 6/25/1 1/4/1 18/3/1
f 1/4/1 2/1/1 18/3/1
f 1/4/2 6/25/2 11/5/2
f 3/7/3 5/11/3 19/8/3
f 26/17/4 16/10/4 9/9/4
f 16/10/4 3/7/4 9/9/4
f 9/9/4 4/24/4 21/21/4
f 4/24/3 14/23/3 21/21/3
f 1/4/4 10/6/4 9/9/4
f 10/6/4 22/15/4 9/9/4
f 22/15/4 26/17/4 9/9/4
f 20/20/3 12/26/3 2/1/3
f 9/9/4 21/21/4 20/20/4
f 20/20/4 2/1/4 9/9/4
f 16/10/2 17/18/2 5/11/2
f 13/19/5 24/27/5 18/3/5
f 24/27/5 25/12/5 18/3/5
f 18/3/5 25/12/5 19/8/5
f 15/13/5 8/22/5 19/8/5
f 7/2/5 13/19/5 18/3/5
f 10/6/2 11/5/2 23/14/2
f 22/15/2 23/14/2 27/16/2
f 26/17/2 27/16/2 17/18/2
f 18/3/5 19/8/5 27/16/5
f 19/8/5 5/11/5 17/18/5
f 17/18/5 27/16/5 19/8/5
f 27/16/5 23/14/5 18/3/5
f 11/5/5 6/25/5 18/3/5
f 2/1/6 12/26/6 13/19/6
f 15/13/6 25/12/7 21/21/6
f 25/12/7 24/27/6 20/20/6
f 24/27/6 13/19/6 20/20/6
f 8/22/6 15/13/6 14/23/6
f 19/8/3 8/22/3 4/24/3
