%YAML 1.1
%TAG !u! tag:unity3d.com,2011:
--- !u!1045 &1
EditorBuildSettings:
  m_ObjectHideFlags: 0
  serializedVersion: 2
  m_Scenes:
  - enabled: 0
    path: Assets/Ivan/Scenes/SampleScene.unity
    guid: f410cefcc930eec40b6c604a1bc439d3
  - enabled: 1
    path: Assets/Ivan/Scenes/Menu.unity
    guid: f5ae879235df316489e72135527462ca
  - enabled: 1
    path: Assets/Ivan/Scenes/Second_menu.unity
    guid: c77d3592117eb5140ab5ba6414d033e0
  - enabled: 1
    path: Assets/Scenes/Level 1.unity
    guid: 9fc0d4010bbf28b4594072e72b8655ab
  - enabled: 1
    path: Assets/Scenes/Level 2.unity
    guid: 55b28b33a7c16d54db9eded07b33cd98
  - enabled: 1
    path: Assets/Scenes/Level 3.unity
    guid: f8e89061652b8434caaa7dbb11e338ae
  m_configObjects: {}
